\relax 
\@writefile{toc}{\contentsline {section}{\numberline {1}Algorithm explanation}{1}}
\@writefile{toc}{\contentsline {paragraph}{•}{1}}
\@writefile{toc}{\contentsline {subsection}{\numberline {1.1}CrossVal.m}{1}}
\@writefile{toc}{\contentsline {paragraph}{•}{1}}
\@writefile{toc}{\contentsline {subsection}{\numberline {1.2}Err.m}{1}}
\@writefile{toc}{\contentsline {paragraph}{•}{1}}
\@writefile{toc}{\contentsline {subsection}{\numberline {1.3}main.m}{1}}
\@writefile{toc}{\contentsline {paragraph}{•}{1}}
\@writefile{toc}{\contentsline {section}{\numberline {2}Contemplation over results}{1}}
\@writefile{toc}{\contentsline {paragraph}{•}{1}}
\@writefile{toc}{\contentsline {paragraph}{•}{2}}
\@writefile{toc}{\contentsline {paragraph}{•}{2}}
