\relax 
\@writefile{toc}{\contentsline {section}{\numberline {1}Grade}{1}}
\@writefile{toc}{\contentsline {paragraph}{•}{1}}
\@writefile{toc}{\contentsline {paragraph}{•}{1}}
\@writefile{toc}{\contentsline {section}{\numberline {2}Score}{1}}
\@writefile{toc}{\contentsline {paragraph}{•}{1}}
\@writefile{toc}{\contentsline {paragraph}{•}{1}}
\@writefile{toc}{\contentsline {section}{\numberline {3}HowManyPercent}{1}}
\@writefile{toc}{\contentsline {paragraph}{•}{1}}
\@writefile{toc}{\contentsline {paragraph}{•}{2}}
